{
    "metadata": {
        "servicename": "CNAME_RECORD",
        "schemaversion": "1.0.0",
        "owningteam": "networkautomation",
        "service_dependancies": [],
        "requires": {
            "application": [
                "name"
            ],
            "team": [
                "name",
                "budget_code"
            ]
        }
    },
    "name": {
        "type": "string",
        "examples":[
            "CNAME Record NAME HERE"
        ]

    },
    "dns_name":{
        "title": "Fully Qualified Domain Name",
        "type": "string",
        "pattern":  "^[a-z0-9-_\\.]{4,63}\\.companyname.com",
        "minLength": "100",
        "maxLength": "19",
        "examples":[
            "someappname.companyname.com"
        ]

    },
    "dns_cname": {
        "title": "CANONICAL NAME value",
        "type": "string",
        "pattern":  "^[a-z0-9-_\\.]{4,63}\\.companyname.com",
        "minLength": "100",
        "maxLength": "19",
        "examples":[
            "long_internal_name.companyname.com"
        ]
    }
}
