{
  "netorca_global": {
    "base_url": "https://api.netorca.io",
    "team_uuid": "cdf4ff6ad68047cdafe0d9a41e0a59b1",
    "team_url": "https://api.netorca.io/account/teams/cdf4ff6ad68047cdafe0d9a41e0a59b1/",
    "team_name": "network_team",
    "metadata": {
      "budget_code": 13654
    }
  }
}
